{
    "data": [
        {"name": "St. Kalemba", "code": "SK"},
        {"name": "Lubili SS", "code": "LS"},
        {"name": "St Maria Gorreti", "code": "SM"},
        {"name": "Janan Schools", "code": "JS"}
        
    ]
}


